Predicting the NBA MVP
…
Our equation will be set up to where we predict the outcome variable award_share calculated as some function using the rest of the variables we chose. We normalize all predictors to have mean 0 and standard deviation 1. All variables are numeric so we do not have to worry about any transformations.

# setting up our recipe

 nba_recipe <- nba %>% 
    recipe(award_share ~ gs + mp_per_g + fg_per_g + fga_per_g + ft_per_g + fta_per_g +
             pts_per_g + trb_per_g + ast_per_g + stl_per_g + blk_per_g + tov_per_g + per +                ws_per_48 + vorp + ts_pct + usg_pct + mov_adj + win_loss_pct + bpm) %>% 
            step_normalize(all_predictors()) 
 
 # prepping and baking our recipe
 
 prep(nba_recipe) %>% 
   bake(new_data = nba_train)

# A tibble: 6,235 × 21
         gs mp_per_g fg_per_g fga_per_g ft_per_g fta_per_g pts_per_g trb_per_g
      <dbl>    <dbl>    <dbl>     <dbl>    <dbl>     <dbl>     <dbl>     <dbl>
 1  0.940      1.00     2.45     1.55     1.03      1.31      1.95      1.34  
 2 -0.00437    0.440   -0.232   -0.253    0.642     0.686    -0.105    -1.31  
 3 -1.93      -1.75    -0.777   -0.976   -0.470    -0.202    -0.834    -0.0256
 4  1.05       1.36     1.46     1.41     0.315     0.164     1.03      1.07  
 5 -1.78      -1.37    -0.529   -0.590   -0.470    -0.306    -0.651    -0.0256
 6  0.789      0.611    0.215    0.0124  -0.535    -0.620    -0.123     1.34  
 7 -1.33      -0.894    0.215   -0.0599   0.0536    0.0591    0.0228   -0.784 
 8 -1.82      -1.59    -1.08    -0.879   -0.666    -0.724    -0.998    -1.20  
 9 -0.231      0.491    1.46     1.43     0.250     0.164     1.03     -1.12  
10  0.109     -0.774   -1.12    -1.10    -0.600    -0.672    -1.13     -0.405 
# ℹ 6,225 more rows
# ℹ 13 more variables: ast_per_g <dbl>, stl_per_g <dbl>, blk_per_g <dbl>,
#   tov_per_g <dbl>, per <dbl>, ws_per_48 <dbl>, vorp <dbl>, ts_pct <dbl>,
#   usg_pct <dbl>, mov_adj <dbl>, win_loss_pct <dbl>, bpm <dbl>,
#   award_share <dbl>
…
